<?xml version="1.0" encoding="UTF-8"?>
<Project>
   <description>This project automates the task of creating new SDMC user.</description>
   <name>CreateUser</name>
   <tag></tag>
   <UUID>e2a63ebf-e5e0-4346-8d61-756bd801e3d7</UUID>
   <migratedVersion>5.4.0</migratedVersion>
   <pageLoadTimeout>0</pageLoadTimeout>
</Project>
